{
  "memory profile": "WinXPSP3x86", 
  "processes": {
    "rows": [
      [
        27439360, 
        "winlogon.exe", 
        620, 
        "True", 
        "True", 
        "True", 
        "True", 
        "True", 
        "True", 
        "True", 
        ""
      ], 
      [
        27513696, 
        "svchost.exe", 
        932, 
        "True", 
        "True", 
        "True", 
        "True", 
        "True", 
        "True", 
        "True", 
        ""
      ], 
      [
        25826240, 
        "VMwareService.e", 
        1756, 
        "True", 
        "True", 
        "True", 
        "True", 
        "True", 
        "True", 
        "True", 
        ""
      ], 
      [
        26113512, 
        "spoolsv.exe", 
        1648, 
        "True", 
        "True", 
        "True", 
        "True", 
        "True", 
        "True", 
        "True", 
        ""
      ], 
      [
        27114544, 
        "lsass.exe", 
        684, 
        "True", 
        "True", 
        "True", 
        "True", 
        "True", 
        "True", 
        "True", 
        ""
      ], 
      [
        25486248, 
        "wscntfy.exe", 
        560, 
        "True", 
        "True", 
        "True", 
        "True", 
        "True", 
        "False", 
        "True", 
        ""
      ], 
      [
        25884768, 
        "VMwareTray.exe", 
        1896, 
        "True", 
        "True", 
        "True", 
        "True", 
        "True", 
        "True", 
        "True", 
        ""
      ], 
      [
        27573280, 
        "network_listene", 
        1696, 
        "False", 
        "False", 
        "True", 
        "True", 
        "True", 
        "False", 
        "True", 
        ""
      ], 
      [
        25443112, 
        "wuauclt.exe", 
        1372, 
        "True", 
        "True", 
        "True", 
        "True", 
        "True", 
        "True", 
        "True", 
        ""
      ], 
      [
        27630960, 
        "svchost.exe", 
        844, 
        "True", 
        "True", 
        "True", 
        "True", 
        "True", 
        "True", 
        "True", 
        ""
      ], 
      [
        25883720, 
        "VMwareUser.exe", 
        1904, 
        "True", 
        "True", 
        "True", 
        "True", 
        "True", 
        "True", 
        "True", 
        ""
      ], 
      [
        27229600, 
        "svchost.exe", 
        1164, 
        "True", 
        "True", 
        "True", 
        "True", 
        "True", 
        "True", 
        "True", 
        ""
      ], 
      [
        25516000, 
        "alg.exe", 
        512, 
        "True", 
        "True", 
        "True", 
        "True", 
        "True", 
        "True", 
        "True", 
        ""
      ], 
      [
        27507320, 
        "services.exe", 
        672, 
        "True", 
        "True", 
        "True", 
        "True", 
        "True", 
        "True", 
        "True", 
        ""
      ], 
      [
        27042936, 
        "explorer.exe", 
        1516, 
        "True", 
        "True", 
        "True", 
        "True", 
        "True", 
        "True", 
        "True", 
        ""
      ], 
      [
        27322096, 
        "svchost.exe", 
        1264, 
        "True", 
        "True", 
        "True", 
        "True", 
        "True", 
        "True", 
        "True", 
        ""
      ], 
      [
        27927296, 
        "svchost.exe", 
        1064, 
        "True", 
        "True", 
        "True", 
        "True", 
        "True", 
        "True", 
        "True", 
        ""
      ], 
      [
        27149936, 
        "smss.exe", 
        360, 
        "True", 
        "True", 
        "True", 
        "True", 
        "False", 
        "False", 
        "False", 
        ""
      ], 
      [
        29149232, 
        "System", 
        4, 
        "True", 
        "True", 
        "True", 
        "True", 
        "False", 
        "False", 
        "False", 
        ""
      ], 
      [
        27377016, 
        "csrss.exe", 
        596, 
        "True", 
        "True", 
        "True", 
        "True", 
        "False", 
        "True", 
        "True", 
        ""
      ], 
      [
        26501152, 
        "svchost.exe", 
        828, 
        "False", 
        "True", 
        "False", 
        "False", 
        "False", 
        "False", 
        "False", 
        ""
      ], 
      [
        26555336, 
        "svchost.exe", 
        924, 
        "False", 
        "True", 
        "True", 
        "False", 
        "False", 
        "False", 
        "False", 
        ""
      ], 
      [
        25550240, 
        "cmd.exe", 
        940, 
        "False", 
        "True", 
        "False", 
        "False", 
        "False", 
        "False", 
        "False", 
        "2008-11-26 07:45:49 UTC+0000"
      ], 
      [
        26503136, 
        "services.exe", 
        660, 
        "False", 
        "True", 
        "True", 
        "False", 
        "False", 
        "False", 
        "False", 
        ""
      ], 
      [
        25278280, 
        "alg.exe", 
        992, 
        "False", 
        "True", 
        "True", 
        "False", 
        "False", 
        "False", 
        "False", 
        ""
      ], 
      [
        26539608, 
        "svchost.exe", 
        1016, 
        "False", 
        "True", 
        "True", 
        "False", 
        "False", 
        "False", 
        "False", 
        ""
      ], 
      [
        26498792, 
        "csrss.exe", 
        592, 
        "False", 
        "True", 
        "True", 
        "False", 
        "False", 
        "False", 
        "False", 
        ""
      ]
    ], 
    "columns": [
      "Offset(P)", 
      "Name", 
      "PID", 
      "pslist", 
      "psscan", 
      "thrdproc", 
      "pspcid", 
      "csrss", 
      "session", 
      "deskthrd", 
      "ExitTime"
    ]
  }, 
  "modified": "2018-08-29 13:45:51", 
  "hidden processes": [
    [
      "27573280", 
      "1696"
    ]
  ], 
  "connections": {
    "connections": {
      "rows": [
        [
          2172988216, 
          "192.168.101.128:31337", 
          "192.168.101.1:1158", 
          1696
        ], 
        [
          2172451824, 
          "192.168.101.128:1035", 
          "192.168.101.1:445", 
          4
        ]
      ], 
      "columns": [
        "Offset(V)", 
        "LocalAddress", 
        "RemoteAddress", 
        "PID"
      ]
    }, 
    "connscan": {
      "rows": [
        [
          27065328, 
          "192.168.101.128:1035", 
          "192.168.101.1:445", 
          4
        ], 
        [
          27569104, 
          "192.168.101.128:1040", 
          "192.168.101.1:139", 
          4
        ], 
        [
          27601720, 
          "192.168.101.128:31337", 
          "192.168.101.1:1158", 
          1696
        ]
      ], 
      "columns": [
        "Offset(P)", 
        "LocalAddress", 
        "RemoteAddress", 
        "PID"
      ]
    }, 
    "sockscan": {
      "rows": [
        [
          25237296, 
          992, 
          1028, 
          6, 
          "TCP", 
          "127.0.0.1", 
          "2008-11-15 23:43:25 UTC+0000"
        ], 
        [
          25311712, 
          1112, 
          1900, 
          17, 
          "UDP", 
          "192.168.101.128", 
          "2008-11-15 23:43:25 UTC+0000"
        ], 
        [
          25312768, 
          1112, 
          1900, 
          17, 
          "UDP", 
          "127.0.0.1", 
          "2008-11-15 23:43:25 UTC+0000"
        ], 
        [
          25351736, 
          672, 
          0, 
          255, 
          "Reserved", 
          "0.0.0.0", 
          "2008-11-15 23:43:17 UTC+0000"
        ], 
        [
          25353400, 
          672, 
          4500, 
          17, 
          "UDP", 
          "0.0.0.0", 
          "2008-11-15 23:43:17 UTC+0000"
        ], 
        [
          25472664, 
          512, 
          1028, 
          6, 
          "TCP", 
          "127.0.0.1", 
          "2008-11-26 07:38:53 UTC+0000"
        ], 
        [
          25558280, 
          4, 
          1035, 
          6, 
          "TCP", 
          "0.0.0.0", 
          "2008-11-26 07:43:07 UTC+0000"
        ], 
        [
          25563920, 
          1264, 
          1900, 
          17, 
          "UDP", 
          "127.0.0.1", 
          "2008-11-26 07:38:53 UTC+0000"
        ], 
        [
          25567240, 
          1264, 
          1900, 
          17, 
          "UDP", 
          "192.168.101.128", 
          "2008-11-26 07:38:53 UTC+0000"
        ], 
        [
          25649568, 
          1064, 
          123, 
          17, 
          "UDP", 
          "127.0.0.1", 
          "2008-11-26 07:38:53 UTC+0000"
        ], 
        [
          25669640, 
          1064, 
          123, 
          17, 
          "UDP", 
          "192.168.101.128", 
          "2008-11-26 07:38:53 UTC+0000"
        ], 
        [
          25671200, 
          684, 
          0, 
          255, 
          "Reserved", 
          "0.0.0.0", 
          "2008-11-26 07:38:45 UTC+0000"
        ], 
        [
          25672152, 
          684, 
          4500, 
          17, 
          "UDP", 
          "0.0.0.0", 
          "2008-11-26 07:38:45 UTC+0000"
        ], 
        [
          25849864, 
          684, 
          500, 
          17, 
          "UDP", 
          "0.0.0.0", 
          "2008-11-26 07:38:45 UTC+0000"
        ], 
        [
          26100464, 
          4, 
          137, 
          17, 
          "UDP", 
          "192.168.101.128", 
          "2008-11-26 07:38:28 UTC+0000"
        ], 
        [
          26100832, 
          4, 
          138, 
          17, 
          "UDP", 
          "192.168.101.128", 
          "2008-11-26 07:38:28 UTC+0000"
        ], 
        [
          26103360, 
          4, 
          139, 
          6, 
          "TCP", 
          "192.168.101.128", 
          "2008-11-26 07:38:28 UTC+0000"
        ], 
        [
          27046648, 
          1696, 
          31337, 
          6, 
          "TCP", 
          "0.0.0.0", 
          "2008-11-26 07:44:16 UTC+0000"
        ], 
        [
          27176320, 
          932, 
          135, 
          6, 
          "TCP", 
          "0.0.0.0", 
          "2008-11-26 07:38:20 UTC+0000"
        ], 
        [
          27226816, 
          4, 
          445, 
          6, 
          "TCP", 
          "0.0.0.0", 
          "2008-11-26 07:38:11 UTC+0000"
        ], 
        [
          27503544, 
          4, 
          445, 
          17, 
          "UDP", 
          "0.0.0.0", 
          "2008-11-26 07:38:11 UTC+0000"
        ]
      ], 
      "columns": [
        "Offset(P)", 
        "PID", 
        "Port", 
        "Proto", 
        "Protocol", 
        "Address", 
        "Create Time"
      ]
    }, 
    "sockets": {
      "rows": [
        [
          2171236360, 
          684, 
          500, 
          17, 
          "UDP", 
          "0.0.0.0", 
          "2008-11-26 07:38:45 UTC+0000"
        ], 
        [
          2170859160, 
          512, 
          1028, 
          6, 
          "TCP", 
          "127.0.0.1", 
          "2008-11-26 07:38:53 UTC+0000"
        ], 
        [
          2172613312, 
          4, 
          445, 
          6, 
          "TCP", 
          "0.0.0.0", 
          "2008-11-26 07:38:11 UTC+0000"
        ], 
        [
          2172562816, 
          932, 
          135, 
          6, 
          "TCP", 
          "0.0.0.0", 
          "2008-11-26 07:38:20 UTC+0000"
        ], 
        [
          2170953736, 
          1264, 
          1900, 
          17, 
          "UDP", 
          "192.168.101.128", 
          "2008-11-26 07:38:53 UTC+0000"
        ], 
        [
          2170944776, 
          4, 
          1035, 
          6, 
          "TCP", 
          "0.0.0.0", 
          "2008-11-26 07:43:07 UTC+0000"
        ], 
        [
          2171489856, 
          4, 
          139, 
          6, 
          "TCP", 
          "192.168.101.128", 
          "2008-11-26 07:38:28 UTC+0000"
        ], 
        [
          2172433144, 
          1696, 
          31337, 
          6, 
          "TCP", 
          "0.0.0.0", 
          "2008-11-26 07:44:16 UTC+0000"
        ], 
        [
          2171036064, 
          1064, 
          123, 
          17, 
          "UDP", 
          "127.0.0.1", 
          "2008-11-26 07:38:53 UTC+0000"
        ], 
        [
          2171057696, 
          684, 
          0, 
          255, 
          "Reserved", 
          "0.0.0.0", 
          "2008-11-26 07:38:45 UTC+0000"
        ], 
        [
          2171486960, 
          4, 
          137, 
          17, 
          "UDP", 
          "192.168.101.128", 
          "2008-11-26 07:38:28 UTC+0000"
        ], 
        [
          2170950416, 
          1264, 
          1900, 
          17, 
          "UDP", 
          "127.0.0.1", 
          "2008-11-26 07:38:53 UTC+0000"
        ], 
        [
          2171058648, 
          684, 
          4500, 
          17, 
          "UDP", 
          "0.0.0.0", 
          "2008-11-26 07:38:45 UTC+0000"
        ], 
        [
          2171487328, 
          4, 
          138, 
          17, 
          "UDP", 
          "192.168.101.128", 
          "2008-11-26 07:38:28 UTC+0000"
        ], 
        [
          2172890040, 
          4, 
          445, 
          17, 
          "UDP", 
          "0.0.0.0", 
          "2008-11-26 07:38:11 UTC+0000"
        ], 
        [
          2171056136, 
          1064, 
          123, 
          17, 
          "UDP", 
          "192.168.101.128", 
          "2008-11-26 07:38:53 UTC+0000"
        ]
      ], 
      "columns": [
        "Offset(V)", 
        "PID", 
        "Port", 
        "Proto", 
        "Protocol", 
        "Address", 
        "Create Time"
      ]
    }
  }, 
  "certs": {}, 
  "hashes": [
    {
      "sha256": "e7cc30d055d2186912d479637e596f21f1a62196c81d1bdd52d64cf0f04cd980", 
      "sha1": "144204b38331bd73ec51deb6644c44e2f660e598", 
      "filename": "executable.1696.exe", 
      "md5": "a1c45a8f3c13eb9bb0a29953e772aa07"
    }
  ]
}